{
  "projectName": "aiplatform",
  "version": "3.0",
  "frontend": "javascript",
  "javascript": {
    "framework": "angular",
    "config": {
      "SourceDir": "src",
      "DistributionDir": "dist/treo",
      "BuildCommand": "npm.cmd run-script build",
      "StartCommand": "ng serve"
    }
  },
  "providers": [
    "awscloudformation"
  ]
}